stm32f0xx_it.c:85:6:NMI_Handler	0	static
stm32f0xx_it.c:98:6:HardFault_Handler	0	static
stm32f0xx_it.c:113:6:SVC_Handler	0	static
stm32f0xx_it.c:126:6:PendSV_Handler	0	static
stm32f0xx_it.c:139:6:SysTick_Handler	8	static
stm32f0xx_it.c:160:6:USART1_IRQHandler	8	static
